%YAML 1.1
%TAG !u! tag:unity3d.com,2011:
--- !u!21 &2100000
Material:
  serializedVersion: 6
  m_ObjectHideFlags: 0
  m_PrefabParentObject: {fileID: 0}
  m_PrefabInternal: {fileID: 0}
  m_Name: clover2_m
  m_Shader: {fileID: 4800000, guid: 8b2244a10c81340458f62d6b38090be2, type: 3}
  m_ShaderKeywords: GEOM_TYPE_LEAF _ALPHATEST_ON
  m_LightmapFlags: 5
  m_EnableInstancingVariants: 0
  m_DoubleSidedGI: 0
  m_CustomRenderQueue: 2450
  stringTagMap:
    RenderType: TransparentCutout
  disabledShaderPasses: []
  m_SavedProperties:
    serializedVersion: 3
    m_TexEnvs:
    - _AdditionalwindGradient:
        m_Texture: {fileID: 2800000, guid: 1f7362fbb541a3949b1f7ead8f37e973, type: 3}
        m_Scale: {x: 1, y: 1}
        m_Offset: {x: 0, y: 0}
    - _BumpMap:
        m_Texture: {fileID: 0}
        m_Scale: {x: 1, y: 1}
        m_Offset: {x: 0, y: 0}
    - _DetailAlbedoMap:
        m_Texture: {fileID: 0}
        m_Scale: {x: 1, y: 1}
        m_Offset: {x: 0, y: 0}
    - _DetailMask:
        m_Texture: {fileID: 0}
        m_Scale: {x: 1, y: 1}
        m_Offset: {x: 0, y: 0}
    - _DetailNormalMap:
        m_Texture: {fileID: 0}
        m_Scale: {x: 1, y: 1}
        m_Offset: {x: 0, y: 0}
    - _DetailTex:
        m_Texture: {fileID: 0}
        m_Scale: {x: 1, y: 1}
        m_Offset: {x: 0, y: 0}
    - _Diffuse:
        m_Texture: {fileID: 2800000, guid: 3734494189ccbbb47b08b2640319efb0, type: 3}
        m_Scale: {x: 1, y: 1}
        m_Offset: {x: 0, y: 0}
    - _EmissionMap:
        m_Texture: {fileID: 0}
        m_Scale: {x: 1, y: 1}
        m_Offset: {x: 0, y: 0}
    - _MainTex:
        m_Texture: {fileID: 2800000, guid: 3734494189ccbbb47b08b2640319efb0, type: 3}
        m_Scale: {x: 1, y: 1}
        m_Offset: {x: 0, y: 0}
    - _MetallicGlossMap:
        m_Texture: {fileID: 0}
        m_Scale: {x: 1, y: 1}
        m_Offset: {x: 0, y: 0}
    - _Normal:
        m_Texture: {fileID: 2800000, guid: 28c91d54010689f44a7ca6879095a17d, type: 3}
        m_Scale: {x: 1, y: 1}
        m_Offset: {x: 0, y: 0}
    - _OcclusionMap:
        m_Texture: {fileID: 0}
        m_Scale: {x: 1, y: 1}
        m_Offset: {x: 0, y: 0}
    - _ParallaxMap:
        m_Texture: {fileID: 0}
        m_Scale: {x: 1, y: 1}
        m_Offset: {x: 0, y: 0}
    - _WindMask:
        m_Texture: {fileID: 2800000, guid: 36cb66ed03b74874bb8932a13c736d6c, type: 3}
        m_Scale: {x: 1, y: 1}
        m_Offset: {x: 0, y: 0}
    m_Floats:
    - _AO: 0
    - _Additionalwindstr: 0.1
    - _AlphaCutoff: 1
    - _BaseLight: 0.6
    - _BumpScale: 1
    - _Cull: 0
    - _Cutoff: 0.4
    - _Desaturation: 0
    - _DetailNormalMapScale: 1
    - _DstBlend: 0
    - _Gloss: 0.4
    - _Glossiness: 0.5
    - _MainWindStr: 0.2
    - _Metallic: 0
    - _Mode: 1
    - _Occlusion: 0.6
    - _OcclusionStrength: 1
    - _Parallax: 0.02
    - _Shininess: 0.1
    - _Specular: 1
    - _SquashAmount: 1
    - _SrcBlend: 1
    - _UVSec: 0
    - _WindQuality: 0
    - _ZWrite: 1
    m_Colors:
    - _Color: {r: 0.8602941, g: 0.8602941, b: 0.8602941, a: 1}
    - _Diffusecolor: {r: 0.75735295, g: 0.75735295, b: 0.75735295, a: 1}
    - _EmissionColor: {r: 0, g: 0, b: 0, a: 1}
    - _HueVariation: {r: 1, g: 0.5, b: 0, a: 0.1}
    - _LightWrap: {r: 0.29411763, g: 0.29411763, b: 0.29411763, a: 1}
    - _MainWindvector: {r: 0.4, g: 0, b: 0, a: 0}
    - _SpecColor: {r: 0, g: 0, b: 0, a: 0}
    - _Transmission: {r: 0.5, g: 0.5, b: 0.5, a: 1}
    - _TreeInstanceColor: {r: 1, g: 1, b: 1, a: 1}
    - _TreeInstanceScale: {r: 1, g: 1, b: 1, a: 1}
