%YAML 1.1
%TAG !u! tag:unity3d.com,2011:
--- !u!114 &11400000
MonoBehaviour:
  m_ObjectHideFlags: 0
  m_PrefabParentObject: {fileID: 0}
  m_PrefabInternal: {fileID: 0}
  m_GameObject: {fileID: 0}
  m_Enabled: 1
  m_EditorHideFlags: 0
  m_Script: {fileID: 11500000, guid: 6ca52a2d0c310fc4ca4d26b3c6ed943a, type: 3}
  m_Name: Botanist Handbook
  m_EditorClassIdentifier: 
  equipBlockEffectBonus: 0
  equipCriticalEffectBonus: 0
  learnProfession: {fileID: 11400000, guid: cab407fc21c654868bd6e922951df4af, type: 2}
  gainProfessionExp: 1
  InstantiateObject: 0
  equipHealthRecoveryBonus: 0
  equipManaRecoveryBonus: 0
  equipSpeedBonus: 0
  equipStrengthBonus: 0
  equipIntelligenceBonus: 0
  equipAttribute1Bonus: 0
  equipAttribute2Bonus: 0
  equipAttribute3Bonus: 0
  equipAttribute4Bonus: 0
  equipAttribute5Bonus: 0
  equipAttribute6Bonus: 0
  equipAttribute9Bonus: 0
  equipGoldBonus: 0
  equipExpBonus: 0
  equipCoinsBonus: 0
  resetAttributes: 0
  resetSkills: 0
  boosterType: 0
  boosterDuration: 0
  boosterEffect: 0
  _mount: {fileID: 0}
  _mounted: {fileID: 0}
  _speedPercent: 0
  element: 0
  equipResFire: 0
  equipResWater: 0
  equipResEarth: 0
  equipResAir: 0
  equipResMagic: 0
  equipResLight: 0
  equipResDark: 0
  equipResSlashing: 0
  equipResCrushing: 0
  equipResPiercing: 0
  usageStamina: 0
  equipStaminaBonus: 0
  equipStaminaRecoveryBonus: 0
  summonActive: 0
  summonMinion: {fileID: 0}
  summonAmount: 0
  summonDuration: 0
  summonLevel: 0
  requiredClass: {fileID: 0}
  requiredRealm: 0
  HealthLessThan: 0
  minHealth: 0
  ManaLessThan: 0
  minMana: 0
  usageArea: 0
  minStrength: 0
  minIntelligence: 0
  minAttribute1: 0
  minAttribute2: 0
  minAttribute3: 0
  minAttribute4: 0
  minAttribute5: 0
  minAttribute6: 0
  minAttribute9: 0
  positiveStamina: 0
  category: 
  maxStack: 1
  buyPrice: 2
  sellPrice: 1
  itemMallPrice: 0
  minLevel: 1
  sellable: 1
  tradable: 1
  destroyable: 1
  toolTip: This handbook allows you to learn the profession of a Botanist.
  image: {fileID: 21300000, guid: a5be0f5bdead743dd9cf5dd9289a805b, type: 3}
  usageDestroy: 1
  usageHealth: 0
  usageMana: 0
  usageExperience: 0
  equipHealthBonus: 0
  equipManaBonus: 0
  equipDamageBonus: 0
  equipDefenseBonus: 0
  equipBlockChanceBonus: 0
  equipCriticalChanceBonus: 0
  modelPrefab: {fileID: 0}
  petPrefab: {fileID: 0}
  usagePetHealth: 0
