%YAML 1.1
%TAG !u! tag:unity3d.com,2011:
--- !u!114 &11400000
MonoBehaviour:
  m_ObjectHideFlags: 0
  m_PrefabParentObject: {fileID: 0}
  m_PrefabInternal: {fileID: 0}
  m_GameObject: {fileID: 0}
  m_Enabled: 1
  m_EditorHideFlags: 0
  m_Script: {fileID: 11500000, guid: 6ca52a2d0c310fc4ca4d26b3c6ed943a, type: 3}
  m_Name: Attunement
  m_EditorClassIdentifier: 
  equipBlockEffectBonus: 0
  equipCriticalEffectBonus: 0
  resetAttributes: 1
  resetSkills: 0
  InstantiateObject: 0
  element: 0
  equipResFire: 0
  equipResWater: 0
  equipResEarth: 0
  equipResAir: 0
  equipResMagic: 0
  equipResLight: 0
  equipResDark: 0
  equipResSlashing: 0
  equipResCrushing: 0
  equipResPiercing: 0
  category: 
  maxStack: 0
  buyPrice: 0
  sellPrice: 0
  itemMallPrice: 0
  minLevel: 0
  sellable: 0
  tradable: 0
  destroyable: 0
  toolTip: This item allows a player to reset all character attributes.
  image: {fileID: 21300000, guid: 76051474533a1441396ad8bacfda8739, type: 3}
  usageDestroy: 0
  usageHealth: 0
  usageMana: 0
  usageExperience: 0
  equipHealthBonus: 0
  equipManaBonus: 0
  equipDamageBonus: 0
  equipDefenseBonus: 0
  equipBlockChanceBonus: 0
  equipCriticalChanceBonus: 0
  modelPrefab: {fileID: 0}
  petPrefab: {fileID: 0}
  usagePetHealth: 0
