%YAML 1.1
%TAG !u! tag:unity3d.com,2011:
--- !u!114 &11400000
MonoBehaviour:
  m_ObjectHideFlags: 0
  m_PrefabParentObject: {fileID: 0}
  m_PrefabInternal: {fileID: 0}
  m_GameObject: {fileID: 0}
  m_Enabled: 1
  m_EditorHideFlags: 0
  m_Script: {fileID: 11500000, guid: 6ca52a2d0c310fc4ca4d26b3c6ed943a, type: 3}
  m_Name: Red Boots
  m_EditorClassIdentifier: 
  equipBlockEffectBonus: 0
  equipCriticalEffectBonus: 0
  equipHealthRecoveryBonus: 0
  equipManaRecoveryBonus: 0
  equipSpeedBonus: 0
  equipStrengthBonus: 0
  equipIntelligenceBonus: 0
  equipAttribute1Bonus: 0
  equipAttribute2Bonus: 0
  equipAttribute3Bonus: 0
  equipAttribute4Bonus: 0
  equipAttribute5Bonus: 0
  equipAttribute6Bonus: 0
  equipAttribute9Bonus: 0
  resetAttributes: 0
  resetSkills: 0
  InstantiateObject: 0
  equipmentSet: {fileID: 11400000, guid: 93a28de4861744aa5a7b825776d8084d, type: 2}
  setItems:
  - {fileID: 11400000, guid: dd4d2ec17f4e84aefbd39fe794842828, type: 2}
  setBlockEffectBonus: 0
  setCriticalEffectBonus: 0
  setHealthBonus: 0
  setManaBonus: 0
  setDamageBonus: 0
  setDefenseBonus: 0
  setBlockChanceBonus: 0
  setCriticalChanceBonus: 0
  setHealthRecoveryBonus: 0
  setManaRecoveryBonus: 0
  setSpeedBonus: 2
  setStrengthBonus: 0
  setIntelligenceBonus: 0
  setAttribute1Bonus: 0
  setAttribute2Bonus: 0
  setAttribute3Bonus: 0
  setAttribute4Bonus: 0
  setAttribute5Bonus: 0
  setAttribute6Bonus: 0
  setAttribute9Bonus: 0
  setResFire: 0
  setResWater: 0
  setResEarth: 0
  setResAir: 0
  setResMagic: 0
  setResLight: 0
  setResDark: 0
  setResSlashing: 0
  setResCrushing: 0
  setResPiercing: 0
  setPartialResWater: 0
  element: 0
  equipResFire: 0
  equipResWater: 0
  equipResEarth: 0
  equipResAir: 0
  equipResMagic: 0
  equipResLight: 0
  equipResDark: 0
  equipResSlashing: 0
  equipResCrushing: 0
  equipResPiercing: 0
  usageStamina: 0
  equipStaminaBonus: 0
  equipStaminaRecoveryBonus: 0
  category: EquipmentFeet
  maxStack: 1
  buyPrice: 10
  sellPrice: 5
  itemMallPrice: 0
  minLevel: 1
  sellable: 1
  tradable: 1
  destroyable: 1
  toolTip: '<b>{NAME}</b>


    {EQUIPDAMAGEBONUS} Damage

    Destroyable: {DESTROYABLE}

    Sellable: {SELLABLE}

    Tradable: {TRADABLE}

    Required Level: {MINLEVEL}


    Amount: {AMOUNT}

    Price: {BUYPRICE} Gold

    <i>Sells for: {SELLPRICE} Gold</i>'
  image: {fileID: 21300000, guid: 1d8e9a52eff104373a7f5317e3b0151e, type: 3}
  usageDestroy: 0
  usageHealth: 0
  usageMana: 0
  usageExperience: 0
  equipHealthBonus: 0
  equipManaBonus: 0
  equipDamageBonus: 10
  equipDefenseBonus: 0
  equipBlockChanceBonus: 0
  equipCriticalChanceBonus: 0
  modelPrefab: {fileID: 1494994405474790, guid: e686f8479cfb649f6a6566db83274764,
    type: 2}
  petPrefab: {fileID: 0}
  usagePetHealth: 0
