v -0.444983 0.0220224 0
vn 0 -0 1
vt 0.0876685 0.00818881
v -0.444983 -0.969308 0
vn 0 -0 1
vt 0.0876685 0.503854
v -0.283835 -1.96064 0
vn 0 -0 1
vt 0.240847 0.999518
v 0.17932 -1.96064 0
vn 0 -0 1
vt 0.681098 0.999518
v 0.414975 0.0220224 0
vn 0 -0 1
vt 0.9051 0.00818881
v 0.414975 -0.969308 0
vn 0 -0 1
vt 0.9051 0.503854
f 1/1/1 6/6/6 5/5/5
f 1/1/1 2/2/2 6/6/6
f 2/2/2 4/4/4 6/6/6
f 2/2/2 3/3/3 4/4/4
