%YAML 1.1
%TAG !u! tag:unity3d.com,2011:
--- !u!21 &2100000
Material:
  serializedVersion: 6
  m_ObjectHideFlags: 0
  m_PrefabParentObject: {fileID: 0}
  m_PrefabInternal: {fileID: 0}
  m_Name: SecondaryCaustics
  m_Shader: {fileID: 4800000, guid: 6f274af305af8c14c8e6091aefa44953, type: 3}
  m_ShaderKeywords: 
  m_LightmapFlags: 5
  m_EnableInstancingVariants: 0
  m_DoubleSidedGI: 0
  m_CustomRenderQueue: -1
  stringTagMap: {}
  disabledShaderPasses: []
  m_SavedProperties:
    serializedVersion: 3
    m_TexEnvs:
    - _Texture:
        m_Texture: {fileID: 2800000, guid: b3bb840dc351a4a4ab9338050b39b5a9, type: 3}
        m_Scale: {x: 200, y: 200}
        m_Offset: {x: 0.5, y: 0.5}
    m_Floats:
    - _DepthFade: 24.8
    - _DistanceVisibility: 10
    - _Fade: 1
    - _Intensity: 0.3
    - _WaterLevel: 34.8
    m_Colors:
    - _Color: {r: 1, g: 1, b: 1, a: 1}
