﻿======================================================================
UNITY-MMO - UMMORPG & UNITY ASSETS
======================================================================
* Copyright by Unity-MMO - no permission to share, re-sell or give away
* Authors: Stue & Fhiz (Laffy AddOns maintained with permission)
* This asset is an Add-On for uMMORPG, it is useless without.
* Tested under MacOS, Windows and Linux Dedicated Server.
* Get uMMORPG here: https://www.assetstore.unity3d.com/en/#!/content/51212

* Our AddOn/Asset Store: http://www.unity-mmo.com
* NuCore Download (required for most AddOns): http://www.unity-mmo.com/butler/index.php
* Support via eMail: support@unity-mmo.com
* Support via Discord: https://discord.gg/NGNqpnw
======================================================================

INSTALLATION
- - - - - - - - - - - - - - - - - - - - - - - - - - - - - - - - - - - 
Just import this Unity Package into your project that has uMMORPG3d already installed.

DESCRIPTION
- - - - - - - - - - - - - - - - - - - - - - - - - - - - - - - - - - - 
A collection of Utility classes that are used by almost all of our AddOns. This package
is always required - our AddOns will cause errors if you do not import it into your
project first!

======================================================================