%YAML 1.1
%TAG !u! tag:unity3d.com,2011:
--- !u!114 &11400000
MonoBehaviour:
  m_ObjectHideFlags: 0
  m_PrefabParentObject: {fileID: 0}
  m_PrefabInternal: {fileID: 0}
  m_GameObject: {fileID: 0}
  m_Enabled: 1
  m_EditorHideFlags: 0
  m_Script: {fileID: 11500000, guid: 86a8f8abd50882641946b6e97ea405f7, type: 3}
  m_Name: Blood Aura
  m_EditorClassIdentifier: 
  element: 0
  category: Buff
  followupDefaultAttack: 0
  toolTip: '<b>{NAME} Lvl {LEVEL}</b>

    Increases maximum health for a while.


    Cast Time: {CASTTIME}

    Cooldown: {COOLDOWN}

    Buff Time: {BUFFTIME}

    Buffs max Health: {BUFFSHEALTHMAX}

    Mana Costs: {MANACOSTS}'
  image: {fileID: 21300000, guid: 0b34356381395364cad3bb7d2959bf2f, type: 3}
  learnDefault: 0
  showCastBar: 1
  levels:
  - buffsBlockEffect: 0
    buffsCriticalEffect: 0
    buffResFire: 0
    buffResWater: 0
    buffResEarth: 0
    buffResAir: 0
    buffResMagic: 0
    buffResLight: 0
    buffResDark: 0
    buffResSlashing: 0
    buffResCrushing: 0
    buffResPiercing: 0
    healsStamina: 0
    buffsStaminaMax: 0
    buffsStaminaPercentPerSecond: 0
    damage: 0
    castTime: 3.167
    cooldown: 10
    castRange: 0
    aoeRadius: 0
    manaCosts: 10
    healsHealth: 0
    healsMana: 0
    buffTime: 30
    buffsHealthMax: 45
    buffsManaMax: 0
    buffsDamage: 0
    buffsDefense: 0
    buffsBlockChance: 0
    buffsCriticalChance: 0
    buffsHealthPercentPerSecond: 0
    buffsManaPercentPerSecond: 0
    effectPrefab: {fileID: 114845613861371762, guid: 79eb775e41e624604966ba3e6f3e5408,
      type: 2}
    requiredLevel: 2
    requiredSkillExperience: 5
  - buffsBlockEffect: 0
    buffsCriticalEffect: 0
    buffResFire: 0
    buffResWater: 0
    buffResEarth: 0
    buffResAir: 0
    buffResMagic: 0
    buffResLight: 0
    buffResDark: 0
    buffResSlashing: 0
    buffResCrushing: 0
    buffResPiercing: 0
    healsStamina: 0
    buffsStaminaMax: 0
    buffsStaminaPercentPerSecond: 0
    damage: 0
    castTime: 3.15
    cooldown: 10
    castRange: 0
    aoeRadius: 0
    manaCosts: 10
    healsHealth: 0
    healsMana: 0
    buffTime: 45
    buffsHealthMax: 50
    buffsManaMax: 0
    buffsDamage: 0
    buffsDefense: 0
    buffsBlockChance: 0
    buffsCriticalChance: 0
    buffsHealthPercentPerSecond: 0
    buffsManaPercentPerSecond: 0
    effectPrefab: {fileID: 114845613861371762, guid: 79eb775e41e624604966ba3e6f3e5408,
      type: 2}
    requiredLevel: 3
    requiredSkillExperience: 10
