%YAML 1.1
%TAG !u! tag:unity3d.com,2011:
--- !u!114 &11400000
MonoBehaviour:
  m_ObjectHideFlags: 0
  m_PrefabParentObject: {fileID: 0}
  m_PrefabInternal: {fileID: 0}
  m_GameObject: {fileID: 0}
  m_Enabled: 1
  m_EditorHideFlags: 0
  m_Script: {fileID: 11500000, guid: 86a8f8abd50882641946b6e97ea405f7, type: 3}
  m_Name: Erroneous Attack (Archer)
  m_EditorClassIdentifier: 
  element: 0
  category: Attack
  followupDefaultAttack: 1
  toolTip: '<b>{NAME} Lvl {LEVEL}</b>

    Default Attack


    Damage: {DAMAGE}

    Cast Time: {CASTTIME}

    Cooldown: {COOLDOWN}

    Cast Range: {CASTRANGE}'
  image: {fileID: 21300000, guid: 007c7136737ddf24f9799530b2279ca9, type: 3}
  learnDefault: 0
  showCastBar: 1
  levels:
  - buffsBlockEffect: 0
    buffsCriticalEffect: 0
    buffResFire: 0
    buffResWater: 0
    buffResEarth: 0
    buffResAir: 0
    buffResMagic: 0
    buffResLight: 0
    buffResDark: 0
    buffResSlashing: 0
    buffResCrushing: 0
    buffResPiercing: 0
    healsStamina: 0
    buffsStaminaMax: 0
    buffsStaminaPercentPerSecond: 0
    damage: 10
    castTime: 2
    cooldown: 5
    castRange: 15
    aoeRadius: 0
    manaCosts: 15
    healsHealth: 0
    healsMana: 0
    buffTime: 0
    buffsHealthMax: 0
    buffsManaMax: 0
    buffsDamage: 0
    buffsDefense: 0
    buffsBlockChance: 0
    buffsCriticalChance: 0
    buffsHealthPercentPerSecond: 0
    buffsManaPercentPerSecond: 0
    effectPrefab: {fileID: 0}
    requiredLevel: 0
    requiredSkillExperience: 0
  - buffsBlockEffect: 0
    buffsCriticalEffect: 0
    buffResFire: 0
    buffResWater: 0
    buffResEarth: 0
    buffResAir: 0
    buffResMagic: 0
    buffResLight: 0
    buffResDark: 0
    buffResSlashing: 0
    buffResCrushing: 0
    buffResPiercing: 0
    healsStamina: 0
    buffsStaminaMax: 0
    buffsStaminaPercentPerSecond: 0
    damage: 11
    castTime: 1.9
    cooldown: 5
    castRange: 15
    aoeRadius: 0
    manaCosts: 14
    healsHealth: 0
    healsMana: 0
    buffTime: 0
    buffsHealthMax: 0
    buffsManaMax: 0
    buffsDamage: 0
    buffsDefense: 0
    buffsBlockChance: 0
    buffsCriticalChance: 0
    buffsHealthPercentPerSecond: 0
    buffsManaPercentPerSecond: 0
    effectPrefab: {fileID: 0}
    requiredLevel: 2
    requiredSkillExperience: 0
