%YAML 1.1
%TAG !u! tag:unity3d.com,2011:
--- !u!114 &11400000
MonoBehaviour:
  m_ObjectHideFlags: 0
  m_PrefabParentObject: {fileID: 0}
  m_PrefabInternal: {fileID: 0}
  m_GameObject: {fileID: 0}
  m_Enabled: 1
  m_EditorHideFlags: 0
  m_Script: {fileID: 11500000, guid: e56c3572016bd405fbbd6a92834f581e, type: 3}
  m_Name: Blood Potion
  m_EditorClassIdentifier: 
  ingredients:
  - {fileID: 11400000, guid: 7ac38d0d066d9c64fbbb5a02a47c068a, type: 2}
  - {fileID: 11400000, guid: 7ac38d0d066d9c64fbbb5a02a47c068a, type: 2}
  - {fileID: 0}
  - {fileID: 0}
  - {fileID: 0}
  - {fileID: 0}
  result: {fileID: 11400000, guid: 56e17ee34aed64f4a968cb5c7a64ddb5, type: 2}
